{
  "kind": "collectionType",
  "collectionName": "medias",
  "info": {
    "singularName": "media",
    "pluralName": "medias",
    "displayName": "Media",
    "description": ""
  },
  "options": {
    "draftAndPublish": true
  },
  "pluginOptions": {},
  "attributes": {
    "media": {
      "type": "media",
      "multiple": false,
      "required": true,
      "allowedTypes": [
        "images",
        "videos",
        "audios"
      ]
    }
  }
}
